…
1. Use the function(s) of your choice to get an idea of its structure, including how NA's are treated. Are the data tidy?  


```r
deserts
```

```
## # A tibble: 34,786 x 13
##    record_id month   day  year plot_id species_id sex   hindfoot_length weight
##        <dbl> <dbl> <dbl> <dbl>   <dbl> <chr>      <chr>           <dbl>  <dbl>
##  1         1     7    16  1977       2 NL         M                  32     NA
##  2         2     7    16  1977       3 NL         M                  33     NA
##  3         3     7    16  1977       2 DM         F                  37     NA
##  4         4     7    16  1977       7 DM         M                  36     NA
##  5         5     7    16  1977       3 DM         M                  35     NA
##  6         6     7    16  1977       1 PF         M                  14     NA
##  7         7     7    16  1977       2 PE         F                  NA     NA
##  8         8     7    16  1977       1 DM         M                  37     NA
##  9         9     7    16  1977       1 DM         F                  34     NA
## 10        10     7    16  1977       6 PF         F                  20     NA
## # ... with 34,776 more rows, and 4 more variables: genus <chr>, species <chr>,
## #   taxa <chr>, plot_type <chr>
```
…
9. Which two species have, on average, the highest weight? Once you have identified them, make a new column that is a ratio of `weight` to `hindfoot_length`. Make a plot that shows the range of this new ratio and fill by sex.

```r
deserts %>% 
  filter(weight!="NA") %>% 
  group_by(species) %>% 
  summarise(avg_weight=mean(weight, na.rm=T)) %>% 
  arrange(desc(avg_weight))
```

```
## # A tibble: 22 x 2
##    species      avg_weight
##    <chr>             <dbl>
##  1 albigula          159. 
##  2 spectabilis       120. 
##  3 spilosoma          93.5
##  4 hispidus           65.6
##  5 fulviventer        58.9
##  6 ochrognathus       55.4
##  7 ordii              48.9
##  8 merriami           43.2
##  9 baileyi            31.7
## 10 leucogaster        31.6
## # ... with 12 more rows
```

```r
deserts_avg <- deserts %>% 
  filter(species == "albigula" | species == "spectabilis") %>% 
  filter(!is.na(weight)) %>% 
   filter(!is.na(sex)) %>% 
  filter(!is.na(hindfoot_length)) %>% 
  mutate(weight_hindfoot_ratio = weight/hindfoot_length)
deserts_avg
```

```
## # A tibble: 3,068 x 14
##    record_id month   day  year plot_id species_id sex   hindfoot_length weight
##        <dbl> <dbl> <dbl> <dbl>   <dbl> <chr>      <chr>           <dbl>  <dbl>
##  1       357    11    12  1977       9 DS         F                  50    117
##  2       362    11    12  1977       1 DS         F                  51    121
##  3       367    11    12  1977      20 DS         M                  51    115
##  4       377    11    12  1977       9 DS         F                  48    120
##  5       381    11    13  1977      17 DS         F                  48    118
##  6       383    11    13  1977      11 DS         F                  52    126
##  7       385    11    13  1977      17 DS         M                  50    132
##  8       392    11    13  1977      11 DS         F                  53    122
##  9       394    11    13  1977       4 DS         F                  48    107
## 10       398    11    13  1977       4 DS         F                  50    115
## # ... with 3,058 more rows, and 5 more variables: genus <chr>, species <chr>,
## #   taxa <chr>, plot_type <chr>, weight_hindfoot_ratio <dbl>
```
…
