…
**Variable type: numeric**

|skim_variable | n_missing| complete_rate|        mean|           sd|       p0|        p25|        p50|         p75|         p100|hist  |
|:-------------|---------:|-------------:|-----------:|------------:|--------:|----------:|----------:|-----------:|------------:|:-----|
|year          |         0|             1|     1979.50|        17.27|  1952.00|    1965.75|    1979.50|     1993.25|       2007.0|▇▅▅▅▇ |
|life_exp      |         0|             1|       59.47|        12.92|    23.60|      48.20|      60.71|       70.85|         82.6|▁▆▇▇▇ |
|pop           |         0|             1| 29601212.32| 106157896.74| 60011.00| 2793664.00| 7023595.50| 19585221.75| 1318683096.0|▇▁▁▁▁ |
|gdp_percap    |         0|             1|     7215.33|      9857.45|   241.17|    1202.06|    3531.85|     9325.46|     113523.1|▇▁▁▁▁ |

```r
gapminder
```

```
## # A tibble: 1,704 x 6
##    country     continent  year life_exp      pop gdp_percap
##    <fct>       <fct>     <int>    <dbl>    <int>      <dbl>
##  1 Afghanistan Asia       1952     28.8  8425333       779.
##  2 Afghanistan Asia       1957     30.3  9240934       821.
##  3 Afghanistan Asia       1962     32.0 10267083       853.
##  4 Afghanistan Asia       1967     34.0 11537966       836.
##  5 Afghanistan Asia       1972     36.1 13079460       740.
##  6 Afghanistan Asia       1977     38.4 14880372       786.
##  7 Afghanistan Asia       1982     39.9 12881816       978.
##  8 Afghanistan Asia       1987     40.8 13867957       852.
##  9 Afghanistan Asia       1992     41.7 16317921       649.
## 10 Afghanistan Asia       1997     41.8 22227415       635.
## # ... with 1,694 more rows
```
…
```r
gapminder%>%
  group_by(year,continent)%>%
  summarise(mean_life_exp=mean(life_exp),
            max_life_exp=max(life_exp),
            minn_life_exp=min(life_exp))
```

```
## `summarise()` has grouped output by 'year'. You can override using the `.groups` argument.
```

```
## # A tibble: 60 x 5
## # Groups:   year [12]
##    year  continent mean_life_exp max_life_exp minn_life_exp
##    <fct> <fct>             <dbl>        <dbl>         <dbl>
##  1 1952  Africa             39.1         52.7          30  
##  2 1952  Americas           53.3         68.8          37.6
##  3 1952  Asia               46.3         65.4          28.8
##  4 1952  Europe             64.4         72.7          43.6
##  5 1952  Oceania            69.3         69.4          69.1
##  6 1957  Africa             41.3         58.1          31.6
##  7 1957  Americas           56.0         70.0          40.7
##  8 1957  Asia               49.3         67.8          30.3
##  9 1957  Europe             66.7         73.5          48.1
## 10 1957  Oceania            70.3         70.3          70.3
## # ... with 50 more rows
```
…
**7. Which countries have had the largest population growth since 1952?**

```r
growth <- gapminder %>% 
  group_by(country) %>% 
  filter(year=="1952"|year=="2007") %>% 
  mutate(pop_growth= pop-lag(pop, default=first(pop))) %>% 
  arrange(desc(pop_growth))
growth
```

```
## # A tibble: 284 x 7
## # Groups:   country [142]
##    country       continent year  life_exp        pop gdp_percap pop_growth
##    <fct>         <fct>     <fct>    <dbl>      <int>      <dbl>      <int>
##  1 China         Asia      2007      73.0 1318683096      4959.  762419569
##  2 India         Asia      2007      64.7 1110396331      2452.  738396331
##  3 United States Americas  2007      78.2  301139947     42952.  143586947
##  4 Indonesia     Asia      2007      70.6  223547000      3541.  141495000
##  5 Brazil        Americas  2007      72.4  190010647      9066.  133408087
##  6 Pakistan      Asia      2007      65.5  169270617      2606.  127924057
##  7 Bangladesh    Asia      2007      64.1  150448339      1391.  103561480
##  8 Nigeria       Africa    2007      46.9  135031164      2014.  101912068
##  9 Mexico        Americas  2007      76.2  108700891     11978.   78556574
## 10 Philippines   Asia      2007      71.7   91077287      3190.   68638596
## # ... with 274 more rows
```
…
