…
```
##  [1] "name"       "gender"     "eye.color"  "race"       "hair.color"
##  [6] "height"     "publisher"  "skin.color" "alignment"  "weight"
```

```r
superhero_info %>%
  select(name, gender, alignment) %>%
  filter(alignment == "neutral") %>%
  arrange(alignment)
```

```
## # A tibble: 24 x 3
##    name         gender alignment
##    <chr>        <chr>  <chr>    
##  1 Bizarro      Male   neutral  
##  2 Black Flash  Male   neutral  
##  3 Captain Cold Male   neutral  
##  4 Copycat      Female neutral  
##  5 Deadpool     Male   neutral  
##  6 Deathstroke  Male   neutral  
##  7 Etrigan      Male   neutral  
##  8 Galactus     Male   neutral  
##  9 Gladiator    Male   neutral  
## 10 Indigo       Female neutral  
## # ... with 14 more rows
```

## `superhero_info`
3. Let's say we are only interested in the variables name, alignment, and "race". How would you isolate these variables from `superhero_info`?

```r
superhero_info %>%
  select(alignment, race, name)
```

```
## # A tibble: 734 x 3
##    alignment race              name         
##    <chr>     <chr>             <chr>        
##  1 good      Human             A-Bomb       
##  2 good      Icthyo Sapien     Abe Sapien   
##  3 good      Ungaran           Abin Sur     
##  4 bad       Human / Radiation Abomination  
##  5 bad       Cosmic Entity     Abraxas      
##  6 bad       Human             Absorbing Man
##  7 good      <NA>              Adam Monroe  
##  8 good      Human             Adam Strange 
##  9 good      <NA>              Agent 13     
## 10 good      Human             Agent Bob    
## # ... with 724 more rows
```

## Not Human
4. List all of the superheros that are not human.

```r
superhero_info %>%
  select(race, name) %>%
  filter(race != "Human")
```

```
## # A tibble: 222 x 2
##    race              name        
##    <chr>             <chr>       
##  1 Icthyo Sapien     Abe Sapien  
##  2 Ungaran           Abin Sur    
##  3 Human / Radiation Abomination 
##  4 Cosmic Entity     Abraxas     
##  5 Cyborg            Ajax        
##  6 Xenomorph XX121   Alien       
##  7 Android           Amazo       
##  8 Vampire           Angel       
##  9 Mutant            Angel Dust  
## 10 God / Eternal     Anti-Monitor
## # ... with 212 more rows
```

## Good and Evil
5. Let's make two different data frames, one focused on the "good guys" and another focused on the "bad guys".

```r
good.guys <- superhero_info %>%
  filter(alignment == "good") %>%
  arrange(name)
good.guys
```

```
## # A tibble: 496 x 10
##    name  gender eye.color race  hair.color height publisher skin.color alignment
##    <chr> <chr>  <chr>     <chr> <chr>       <dbl> <chr>     <chr>      <chr>    
##  1 A-Bo~ Male   yellow    Human No Hair       203 Marvel C~ <NA>       good     
##  2 Abe ~ Male   blue      Icth~ No Hair       191 Dark Hor~ blue       good     
##  3 Abin~ Male   blue      Unga~ No Hair       185 DC Comics red        good     
##  4 Adam~ Male   blue      <NA>  Blond          NA NBC - He~ <NA>       good     
##  5 Adam~ Male   blue      Human Blond         185 DC Comics <NA>       good     
##  6 Agen~ Female blue      <NA>  Blond         173 Marvel C~ <NA>       good     
##  7 Agen~ Male   brown     Human Brown         178 Marvel C~ <NA>       good     
##  8 Agen~ Male   <NA>      <NA>  <NA>          191 Marvel C~ <NA>       good     
##  9 Alan~ Male   blue      <NA>  Blond         180 DC Comics <NA>       good     
## 10 Alex~ Male   <NA>      <NA>  <NA>           NA NBC - He~ <NA>       good     
## # ... with 486 more rows, and 1 more variable: weight <dbl>
```


```r
bad.guys <- superhero_info %>%
  filter(alignment == "bad") %>%
  arrange(name)
bad.guys
```

```
## # A tibble: 207 x 10
##    name  gender eye.color race  hair.color height publisher skin.color alignment
##    <chr> <chr>  <chr>     <chr> <chr>       <dbl> <chr>     <chr>      <chr>    
##  1 Abom~ Male   green     Huma~ No Hair       203 Marvel C~ <NA>       bad      
##  2 Abra~ Male   blue      Cosm~ Black          NA Marvel C~ <NA>       bad      
##  3 Abso~ Male   blue      Human No Hair       193 Marvel C~ <NA>       bad      
##  4 Air-~ Male   blue      <NA>  White         188 Marvel C~ <NA>       bad      
##  5 Ajax  Male   brown     Cybo~ Black         193 Marvel C~ <NA>       bad      
##  6 Alex~ Male   <NA>      Human <NA>           NA Wildstorm <NA>       bad      
##  7 Alien Male   <NA>      Xeno~ No Hair       244 Dark Hor~ black      bad      
##  8 Amazo Male   red       Andr~ <NA>          257 DC Comics <NA>       bad      
##  9 Ammo  Male   brown     Human Black         188 Marvel C~ <NA>       bad      
## 10 Ange~ Female <NA>      <NA>  <NA>           NA Image Co~ <NA>       bad      
## # ... with 197 more rows, and 1 more variable: weight <dbl>
```
…
## Height to Weight Ratio
13. It's easy to be strong when you are heavy and tall, but who is heavy and short? Which superheros have the lowest height to weight ratio?

```r
superhero_info %>%
  mutate(height.weight.ratio = height/weight) %>%
  select(name,height.weight.ratio) %>%
  arrange(height.weight.ratio)
```

```
## # A tibble: 734 x 2
##    name        height.weight.ratio
##    <chr>                     <dbl>
##  1 Giganta                  0.0992
##  2 Utgard-Loki              0.262 
##  3 Darkseid                 0.327 
##  4 Juggernaut               0.336 
##  5 Red Hulk                 0.338 
##  6 Sasquatch                0.339 
##  7 Hulk                     0.387 
##  8 Bloodaxe                 0.440 
##  9 Thanos                   0.454 
## 10 A-Bomb                   0.460 
## # ... with 724 more rows
```
…
14. How many superheros have a combination of accelerated healing, durability, and super strength?

```r
superhero_powers %>%
  select(accelerated_healing, durability, super_strength) %>%
  filter(accelerated_healing == TRUE, durability == TRUE, super_strength == TRUE)
```

```
## # A tibble: 97 x 3
##    accelerated_healing durability super_strength
##    <lgl>               <lgl>      <lgl>         
##  1 TRUE                TRUE       TRUE          
##  2 TRUE                TRUE       TRUE          
##  3 TRUE                TRUE       TRUE          
##  4 TRUE                TRUE       TRUE          
##  5 TRUE                TRUE       TRUE          
##  6 TRUE                TRUE       TRUE          
##  7 TRUE                TRUE       TRUE          
##  8 TRUE                TRUE       TRUE          
##  9 TRUE                TRUE       TRUE          
## 10 TRUE                TRUE       TRUE          
## # ... with 87 more rows
```
97 superheros have a combination of the three

## `kinesis`
15. We are only interested in the superheros that do some kind of "kinesis". How would we isolate them from the `superhero_powers` data?

```r
superhero_powers %>%
  select(hero_names, ends_with("kinesis")) %>%
    filter_all(any_vars(.==TRUE))
```

```
## # A tibble: 112 x 10
##    hero_names cryokinesis electrokinesis telekinesis hyperkinesis hypnokinesis
##    <chr>      <lgl>       <lgl>          <lgl>       <lgl>        <lgl>       
##  1 Alan Scott FALSE       FALSE          FALSE       FALSE        TRUE        
##  2 Amazo      TRUE        FALSE          FALSE       FALSE        FALSE       
##  3 Apocalypse FALSE       FALSE          TRUE        FALSE        FALSE       
##  4 Aqualad    TRUE        FALSE          FALSE       FALSE        FALSE       
##  5 Beyonder   FALSE       FALSE          TRUE        FALSE        FALSE       
##  6 Bizarro    TRUE        FALSE          FALSE       FALSE        TRUE        
##  7 Black Abb~ FALSE       FALSE          TRUE        FALSE        FALSE       
##  8 Black Adam FALSE       FALSE          TRUE        FALSE        FALSE       
##  9 Black Lig~ FALSE       TRUE           FALSE       FALSE        FALSE       
## 10 Black Mam~ FALSE       FALSE          FALSE       FALSE        TRUE        
## # ... with 102 more rows, and 4 more variables: thirstokinesis <lgl>,
## #   biokinesis <lgl>, terrakinesis <lgl>, vitakinesis <lgl>
```
…
